*** Darwin 15x12 ***
Turn = 0.
  012345678901
0 .........hfr
1 ............
2 ............
3 ......r...h.
4 ....t.......
5 ...r.f......
6 ....f.......
7 .....ht.....
8 ...t........
9 ..h...h.....
0 .........f..
1 ......rf....
2 ........h...
3 ............
4 ...h........

Turn = 1.
  012345678901
0 ..........fr
1 .........h..
2 ............
3 .....r......
4 ....t.....h.
5 ..r..f......
6 ....f.......
7 .....tt.....
8 ..ht........
9 .....h......
0 ......r..f..
1 .......f....
2 .........h..
3 ............
4 ....h.......

Turn = 2.
  012345678901
0 ..........f.
1 ...........r
2 .........h..
3 ....r.......
4 ....t.......
5 .r...f....h.
6 ....f.......
7 ..h..tt.....
8 ...t........
9 ....h.r.....
0 .........f..
1 .......f....
2 ..........h.
3 ............
4 .....h......

Turn = 3.
  012345678901
0 ..........f.
1 ............
2 ...........r
3 ...r.....h..
4 ....t.......
5 r....f......
6 ..h.f.....h.
7 .....tt.....
8 ...t..r.....
9 ...h........
0 .........f..
1 .......f....
2 ...........h
3 ............
4 ......h.....

Turn = 4.
  012345678901
0 ..........f.
1 ............
2 ............
3 ..r........r
4 ....t....h..
5 r.h..f......
6 ....f.......
7 .....tr...h.
8 ...t..r.....
9 ...t........
0 .........f..
1 .......f....
2 ...........h
3 ............
4 .......h....

Turn = 5.
  012345678901
0 ..........f.
1 ............
2 ............
3 .r..........
4 ..h.t......r
5 .....f...h..
6 r...f.r.....
7 .....tr.....
8 ...t......h.
9 ...t........
0 .........f..
1 .......f....
2 ...........h
3 ............
4 ........h...

Turn = 6.
  012345678901
0 ..........f.
1 ............
2 ............
3 r.h.........
4 ....t.......
5 .....fr....r
6 ....f....h..
7 r....tt.....
8 ...t........
9 ...t......h.
0 .........f..
1 .......f....
2 ...........h
3 ............
4 .........h..

Turn = 7.
  012345678901
0 ..........f.
1 ............
2 ..h.........
3 r...........
4 ....t.r.....
5 .....f......
6 ....f......r
7 .....tt..h..
8 r..t........
9 ...t........
0 .........fh.
1 .......f....
2 ...........h
3 ............
4 ..........h.

Turn = 8.
  012345678901
0 ..........f.
1 ..h.........
2 r...........
3 ......r.....
4 ....t.......
5 .....f......
6 ....f.......
7 .....tt....r
8 ...t.....h..
9 r..t........
0 .........f..
1 .......f..h.
2 ...........h
3 ............
4 ...........h

Turn = 9.
  012345678901
0 ..h.......f.
1 r...........
2 ......r.....
3 ............
4 ....t.......
5 .....f......
6 ....f.......
7 .....tt.....
8 ...t.......r
9 ...t.....h..
0 r........f..
1 .......f....
2 ..........hh
3 ............
4 ...........h

Turn = 10.
  012345678901
0 r.h.......f.
1 ......r.....
2 ............
3 ............
4 ....t.......
5 .....f......
6 ....f.......
7 .....tt.....
8 ...t........
9 ...t.....h.r
0 .........f..
1 r......f....
2 ...........h
3 ..........h.
4 ...........h

*** Darwin 15x13 ***
Turn = 0.
  0123456789012
0 .........t...
1 .............
2 .t...........
3 .t...........
4 ...t.....t...
5 ...f.t..t....
6 .......r....h
7 ...t.........
8 .............
9 .............
0 ......h......
1 .............
2 ...t.........
3 ...rh...t...f
4 .............

Turn = 1.
  0123456789012
0 .........t...
1 .............
2 .t...........
3 .t...........
4 ...t.....t...
5 ...f.t..t...h
6 ......r......
7 ...t.........
8 .............
9 .............
0 .....h.......
1 .............
2 ...th........
3 ...t....t...f
4 .............

Turn = 2.
  0123456789012
0 .........t...
1 .............
2 .t...........
3 .t...........
4 ...t.....t..h
5 ...f.t..t....
6 .....r.......
7 ...t.........
8 .............
9 .............
0 ....h........
1 ....h........
2 ...t.........
3 ...t....t...f
4 .............

Turn = 3.
  0123456789012
0 .........t...
1 .............
2 .t...........
3 .t..........h
4 ...t.....t...
5 ...t.t..t....
6 ....r........
7 ...t.........
8 .............
9 .............
0 ...hh........
1 .............
2 ...t.........
3 ...t....t...f
4 .............

Turn = 4.
  0123456789012
0 .........t...
1 .............
2 .t..........h
3 .t...........
4 ...t.....t...
5 ...t.t..t....
6 ...r.........
7 ...t.........
8 .............
9 ....h........
0 ..h..........
1 .............
2 ...t.........
3 ...t....t...f
4 .............

Turn = 5.
  0123456789012
0 .........t...
1 ............h
2 .t...........
3 .t...........
4 ...t.....t...
5 ...t.t..t....
6 ..r..........
7 ...t.........
8 ....h........
9 .............
0 .h...........
1 .............
2 ...t.........
3 ...t....t...f
4 .............

Turn = 6.
  0123456789012
0 .........t..h
1 .............
2 .t...........
3 .t...........
4 ...t.....t...
5 ...t.t..t....
6 .r...........
7 ...th........
8 .............
9 .............
0 h............
1 .............
2 ...t.........
3 ...t....t...f
4 .............

Turn = 7.
  0123456789012
0 .........t..h
1 .............
2 .t...........
3 .t...........
4 ...t.....t...
5 ...t.t..t....
6 r...h........
7 ...t.........
8 .............
9 .............
0 h............
1 .............
2 ...t.........
3 ...t....t...f
4 .............

Turn = 8.
  0123456789012
0 .........t..h
1 .............
2 .t...........
3 .t...........
4 ...t.....t...
5 ...tht..t....
6 r............
7 ...t.........
8 .............
9 .............
0 h............
1 .............
2 ...t.........
3 ...t....t...f
4 .............

Turn = 9.
  0123456789012
0 .........t..h
1 .............
2 .t...........
3 .t...........
4 ...th....t...
5 r..t.t..t....
6 .............
7 ...t.........
8 .............
9 .............
0 h............
1 .............
2 ...t.........
3 ...t....t...f
4 .............

Turn = 10.
  0123456789012
0 .........t..h
1 .............
2 .t...........
3 .t..h........
4 r..t.....t...
5 ...t.t..t....
6 .............
7 ...t.........
8 .............
9 .............
0 h............
1 .............
2 ...t.........
3 ...t....t...f
4 .............

*** Darwin 15x17 ***
Turn = 0.
  01234567890123456
0 ...h.f....t.t....
1 r................
2 .f..............t
3 .........h.......
4 ........h........
5 ......h..........
6 .....h...........
7 .....t...........
8 .t...t...........
9 .................
0 .................
1 .................
2 h..t.............
3 .h...t...........
4 ...........r.....

Turn = 1.
  01234567890123456
0 ....hf....t.t....
1 .r...............
2 .f..............t
3 .................
4 ........hh.......
5 .................
6 ....h.h..........
7 .....t...........
8 .t...t...........
9 .................
0 .................
1 .................
2 hh.t.............
3 .....t.....r.....
4 .................

Turn = 2.
  01234567890123456
0 ....hf....t.t....
1 ..r..............
2 .f..............t
3 .................
4 ........h........
5 .........h.......
6 ...h.............
7 .....th..........
8 .t...t...........
9 .................
0 .................
1 .h...............
2 h..t.......r.....
3 .....t...........
4 .................

Turn = 3.
  01234567890123456
0 ....hf....t.t....
1 ...r.............
2 .f..............t
3 .................
4 .........h.......
5 .................
6 ..h......h.......
7 .....t...........
8 .t...tt..........
9 .................
0 .h...............
1 ...........r.....
2 h..t.............
3 .....t...........
4 .................

Turn = 4.
  01234567890123456
0 ....hf....t.t....
1 ....r............
2 .f..............t
3 .................
4 ..........h......
5 .................
6 .h...............
7 .....t...h.......
8 .t...tt..........
9 .h...............
0 ...........r.....
1 .................
2 h..t.............
3 .....t...........
4 .................

Turn = 5.
  01234567890123456
0 ....hf....t.t....
1 .....r...........
2 .f..............t
3 .................
4 ...........h.....
5 .................
6 h................
7 .....t...........
8 .t...tt..h.......
9 .h.........r.....
0 .................
1 .................
2 h..t.............
3 .....t...........
4 .................

Turn = 6.
  01234567890123456
0 ....hf....t.t....
1 ......r..........
2 .f..............t
3 .................
4 ............h....
5 .................
6 h................
7 .....t...........
8 .t...tt....r.....
9 .h.......h.......
0 .................
1 .................
2 h..t.............
3 .....t...........
4 .................

Turn = 7.
  01234567890123456
0 ....hf....t.t....
1 .......r.........
2 .f..............t
3 .................
4 .............h...
5 .................
6 h................
7 .....t.....r.....
8 .t...tt..........
9 .h...............
0 .........h.......
1 .................
2 h..t.............
3 .....t...........
4 .................

Turn = 8.
  01234567890123456
0 ....hf....t.t....
1 ........r........
2 .f..............t
3 .................
4 ..............h..
5 .................
6 h..........r.....
7 .....t...........
8 .t...tt..........
9 .t...............
0 .................
1 .........h.......
2 h..t.............
3 .....t...........
4 .................

Turn = 9.
  01234567890123456
0 ....hf....t.t....
1 .........r.......
2 .f..............t
3 .................
4 ...............h.
5 ...........r.....
6 h................
7 .....t...........
8 .t...tt..........
9 .t...............
0 .................
1 .................
2 h..t.....h.......
3 .....t...........
4 .................

Turn = 10.
  01234567890123456
0 ....hf....t.t....
1 ..........r......
2 .f..............t
3 .................
4 ...........r....h
5 .................
6 h................
7 .....t...........
8 .t...tt..........
9 .t...............
0 .................
1 .................
2 h..t.............
3 .....t...h.......
4 .................

*** Darwin 9x16 ***
Turn = 0.
  0123456789012345
0 ........f.....t.
1 ..............h.
2 t.........h.....
3 t....h....f.....
4 ..............r.
5 .....f..........
6 ..........r.....
7 ....h..r........
8 ..r........t....

Turn = 1.
  0123456789012345
0 ........f.....t.
1 ..........h.....
2 t....h........h.
3 t.........f.....
4 ................
5 .....f........r.
6 ...........r....
7 ........r.......
8 .r..h......t....

Turn = 2.
  0123456789012345
0 ........f.h...t.
1 .....h..........
2 t...............
3 t.........f...h.
4 ................
5 .....f..........
6 ............r.r.
7 .........r......
8 r...h......t....

Turn = 3.
  0123456789012345
0 .....h..f.h...t.
1 ................
2 t...............
3 t.........f.....
4 ..............h.
5 .....f..........
6 .............r..
7 ..........r...r.
8 r...h......t....

Turn = 4.
  0123456789012345
0 .....h..f.h...t.
1 ................
2 t...............
3 t.........f.....
4 ................
5 .....f........h.
6 ..............r.
7 r..........r....
8 ....h......t..r.

Turn = 5.
  0123456789012345
0 .....h..f.h...t.
1 ................
2 t...............
3 t.........f.....
4 ................
5 .....f........h.
6 r..............r
7 ............r...
8 ....h......t..r.

Turn = 6.
  0123456789012345
0 .....h..f.h...t.
1 ................
2 t...............
3 t.........f.....
4 ................
5 r....f..........
6 ..............hr
7 .............r..
8 ....h......t...r

Turn = 7.
  0123456789012345
0 .....h..f.h...t.
1 ................
2 t...............
3 t.........f.....
4 r...............
5 .....f..........
6 ................
7 .............rrr
8 ....h......t...r

Turn = 8.
  0123456789012345
0 .....h..f.h...t.
1 ................
2 t...............
3 r.........f.....
4 r...............
5 .....f..........
6 ................
7 .............r.r
8 ....h......t..rr

Turn = 9.
  0123456789012345
0 .....h..f.h...t.
1 ................
2 r...............
3 r.........f.....
4 r...............
5 .....f..........
6 ................
7 ..............r.
8 ....h......t.rrr

Turn = 10.
  0123456789012345
0 .....h..f.h...t.
1 r...............
2 r...............
3 ..........f.....
4 r...............
5 .....f..........
6 ................
7 .............r..
8 ....h......t.rrr

*** Darwin 2x11 ***
Turn = 0.
  01234567890
0 ....ff.f..r
1 f..fhr..rft

Turn = 1.
  01234567890
0 ....ff.f..r
1 f..fhr..rfr

Turn = 2.
  01234567890
0 ....ff.f..r
1 f..frr..rrr

Turn = 3.
  01234567890
0 ....ff.f.r.
1 f..frr..rrr

Turn = 4.
  01234567890
0 ....ff.fr..
1 f..frr..rrr

Turn = 5.
  01234567890
0 ....ff.rrr.
1 f..fr.rr..r

Turn = 6.
  01234567890
0 ....ffrr.rr
1 f..f.rrr...

Turn = 7.
  01234567890
0 ....frrrr.r
1 f..f.rrr...

Turn = 8.
  01234567890
0 ....rrrrr.r
1 f..f.rrr...

Turn = 9.
  01234567890
0 ...rr.rrr..
1 f..fr.rr..r

Turn = 10.
  01234567890
0 ..rr..rr.r.
1 f..rrr..r.r

*** Darwin 9x14 ***
Turn = 0.
  01234567890123
0 .....f........
1 .....h.f.....t
2 .........rr...
3 .h.........t..
4 ..............
5 ..............
6 ..............
7 ..rf...h.....h
8 .........t....

Turn = 1.
  01234567890123
0 .....f........
1 .....h.f.r...t
2 .........r....
3 ...........t..
4 .h............
5 ..............
6 .............h
7 .r.f....h.....
8 .........t....

Turn = 2.
  01234567890123
0 .....f...r....
1 .....h.f.....t
2 ........r.....
3 ...........t..
4 ..............
5 .h...........h
6 ..............
7 r..f.....h....
8 .........t....

Turn = 3.
  01234567890123
0 .....f...r....
1 .....h.f.....t
2 .......r......
3 ...........t..
4 .............h
5 ..............
6 .h............
7 r..f......h...
8 .........t....

Turn = 4.
  01234567890123
0 .....f....r...
1 .....h.f.....t
2 ......r.......
3 ...........t.h
4 ..............
5 ..............
6 ..............
7 .h.f.......h..
8 r........t....

Turn = 5.
  01234567890123
0 .....f.....r..
1 .....h.f.....t
2 .....r.......h
3 ...........t..
4 ..............
5 ..............
6 ..............
7 ...f........h.
8 rh.......t....

Turn = 6.
  01234567890123
0 .....f......r.
1 .....h.f.....t
2 ....r........h
3 ...........t..
4 ..............
5 ..............
6 ..............
7 ...f.........h
8 rh.......t....

Turn = 7.
  01234567890123
0 .....f.......t
1 .....h.f.....t
2 ...r.........h
3 ...........t..
4 ..............
5 ..............
6 ..............
7 r..f.........h
8 .h.......t....

Turn = 8.
  01234567890123
0 .....f.......t
1 .....h.f.....t
2 ..r..........h
3 ...........t..
4 ..............
5 ..............
6 r.............
7 ...f.........h
8 .h.......t....

Turn = 9.
  01234567890123
0 .....f.......t
1 .....h.f.....t
2 .r...........h
3 ...........t..
4 ..............
5 r.............
6 ..............
7 ...f.........h
8 .h.......t....

Turn = 10.
  01234567890123
0 .....f.......t
1 .....h.f.....t
2 r............t
3 ...........t..
4 r.............
5 ..............
6 ..............
7 ...f.........h
8 .h.......t....

*** Darwin 5x12 ***
Turn = 0.
  012345678901
0 ...h........
1 ...t......t.
2 .........tht
3 .th.........
4 r..........r

Turn = 1.
  012345678901
0 ...t........
1 ...t......t.
2 .........tht
3 .tt.........
4 .r........r.

Turn = 2.
  012345678901
0 ...t........
1 ...t......t.
2 .........ttt
3 .tt.........
4 ..r......r..

Turn = 3.
  012345678901
0 ...t........
1 ...t......t.
2 .........ttt
3 .tt.........
4 ...r....r...

Turn = 4.
  012345678901
0 ...t........
1 ...t......t.
2 .........ttt
3 .tt.........
4 ....r..r....

Turn = 5.
  012345678901
0 ...t........
1 ...t......t.
2 .........ttt
3 .tt.........
4 .....rr.....

Turn = 6.
  012345678901
0 ...t........
1 ...t......t.
2 .........ttt
3 .tt.........
4 .....rr.....

Turn = 7.
  012345678901
0 ...t........
1 ...t......t.
2 .........ttt
3 .tt.........
4 .....rr.....

Turn = 8.
  012345678901
0 ...t........
1 ...t......t.
2 .........ttt
3 .tt.........
4 ....rr......

Turn = 9.
  012345678901
0 ...t........
1 ...t......t.
2 .........ttt
3 .tt.........
4 ...rr.......

Turn = 10.
  012345678901
0 ...t........
1 ...t......t.
2 .........ttt
3 .tt.........
4 ..rr........

*** Darwin 18x20 ***
Turn = 0.
  01234567890123456789
0 ....................
1 .........r..........
2 ....................
3 .............f......
4 ....................
5 ..h.................
6 ..r............r...t
7 ....................
8 ....................
9 ........t.th........
0 ....................
1 ........f...........
2 h..f.......r........
3 ..f.................
4 ...r................
5 ...t.............r..
6 .........h..t....r..
7 ......t.............

Turn = 1.
  01234567890123456789
0 .........r..........
1 ....................
2 ....................
3 .............f......
4 ..h.................
5 ..r.................
6 ..............r....t
7 ....................
8 ....................
9 ........t.th........
0 ....................
1 ........f...........
2 h..f......r.........
3 ..f.................
4 ....r...............
5 ...t.............r..
6 ..........h.t.......
7 ......t..........r..

Turn = 2.
  01234567890123456789
0 .........r..........
1 ....................
2 ....................
3 ..h..........f......
4 ..r.................
5 ....................
6 .............r.....t
7 ....................
8 ....................
9 ........t.th........
0 ....................
1 ........f...........
2 h..f.....r..........
3 ..f.................
4 .....r..............
5 ...t............r...
6 ...........tt.......
7 ......t..........r..

Turn = 3.
  01234567890123456789
0 ........r...........
1 ....................
2 ..h.................
3 ..r..........f......
4 ....................
5 ....................
6 ............r......t
7 ....................
8 ....................
9 ........t.tt........
0 ....................
1 ........f...........
2 h..f....r...........
3 ..f.................
4 ......r.............
5 ...t...........r....
6 ...........tt.......
7 ......t.........r...

Turn = 4.
  01234567890123456789
0 .......r............
1 ..h.................
2 ..r.................
3 .............f......
4 ....................
5 ....................
6 ...........r.......t
7 ....................
8 ....................
9 ........t.tt........
0 ....................
1 ........f...........
2 h..f...r............
3 ..f.................
4 .......r............
5 ...t..........r.....
6 ...........tt.......
7 ......t........r....

Turn = 5.
  01234567890123456789
0 ..h...r.............
1 ..r.................
2 ....................
3 .............f......
4 ....................
5 ....................
6 ..........r........t
7 ....................
8 ....................
9 ........t.tt........
0 ....................
1 ........f...........
2 h..f..r.............
3 ..f.................
4 ........r...........
5 ...t.........r......
6 ...........tt.......
7 ......t.......r.....

Turn = 6.
  01234567890123456789
0 ..r..r..............
1 ..r.................
2 ....................
3 .............f......
4 ....................
5 ....................
6 .........r.........t
7 ....................
8 ....................
9 ........t.tt........
0 ....................
1 ........f...........
2 h..f.r..............
3 ..f.................
4 .........r..........
5 ...t........t.......
6 ...........tt.......
7 ......t......r......

Turn = 7.
  01234567890123456789
0 ..r.r...............
1 ..r.................
2 ....................
3 .............f......
4 ....................
5 ....................
6 ........r..........t
7 ....................
8 ....................
9 ........t.tt........
0 ....................
1 ........f...........
2 h..fr...............
3 ..f.................
4 ..........r.........
5 ...t........t.......
6 ...........tt.......
7 ......t.....r.......

Turn = 8.
  01234567890123456789
0 ...rr...............
1 ...r................
2 ....................
3 .............f......
4 ....................
5 ....................
6 .......r...........t
7 ....................
8 ....................
9 ........t.tt........
0 ....................
1 ........f...........
2 h..rr...............
3 ..f.................
4 ...........r........
5 ...t........t.......
6 ...........tt.......
7 ......t....r........

Turn = 9.
  01234567890123456789
0 ...rr...............
1 ....r...............
2 ....................
3 .............f......
4 ....................
5 ....................
6 ......r............t
7 ....................
8 ....................
9 ........t.tt........
0 ....................
1 ........f...........
2 h.rr................
3 ..f.................
4 ............r.......
5 ...t........t.......
6 ...........tt.......
7 ......t...r.........

Turn = 10.
  01234567890123456789
0 ...rr...............
1 .....r..............
2 ....................
3 .............f......
4 ....................
5 ....................
6 .....r.............t
7 ....................
8 ....................
9 ........t.tt........
0 ....................
1 ........f...........
2 hrr.................
3 ..f.................
4 .............r......
5 ...t........t.......
6 ...........tt.......
7 ......t..r..........

*** Darwin 18x5 ***
Turn = 0.
  01234
0 ...t.
1 ....r
2 ...t.
3 .....
4 .....
5 .....
6 h..t.
7 .....
8 .....
9 t...h
0 ...t.
1 .tf..
2 .....
3 .....
4 .....
5 .....
6 .....
7 ..h..

Turn = 1.
  01234
0 ...t.
1 .....
2 ...tr
3 .....
4 .....
5 h....
6 ...t.
7 .....
8 .....
9 t..h.
0 ...t.
1 .tf..
2 .....
3 .....
4 .....
5 .....
6 .....
7 .h...

Turn = 2.
  01234
0 ...t.
1 .....
2 ...t.
3 ....r
4 h....
5 .....
6 ...t.
7 .....
8 .....
9 t.h..
0 ...t.
1 .tf..
2 .....
3 .....
4 .....
5 .....
6 .....
7 h....

Turn = 3.
  01234
0 ...t.
1 .....
2 ...t.
3 h....
4 ....r
5 .....
6 ...t.
7 .....
8 .....
9 th...
0 ...t.
1 .tt..
2 .....
3 .....
4 .....
5 .....
6 .....
7 h....

Turn = 4.
  01234
0 ...t.
1 .....
2 h..t.
3 .....
4 .....
5 ....r
6 ...t.
7 .....
8 .....
9 th...
0 ...t.
1 .tt..
2 .....
3 .....
4 .....
5 .....
6 .....
7 h....

Turn = 5.
  01234
0 ...t.
1 h....
2 ...t.
3 .....
4 .....
5 .....
6 ...tr
7 .....
8 .....
9 th...
0 ...t.
1 .tt..
2 .....
3 .....
4 .....
5 .....
6 .....
7 h....

Turn = 6.
  01234
0 h..t.
1 .....
2 ...t.
3 .....
4 .....
5 .....
6 ...tt
7 .....
8 .....
9 th...
0 ...t.
1 .tt..
2 .....
3 .....
4 .....
5 .....
6 .....
7 h....

Turn = 7.
  01234
0 h..t.
1 .....
2 ...t.
3 .....
4 .....
5 .....
6 ...tt
7 .....
8 .....
9 tt...
0 ...t.
1 .tt..
2 .....
3 .....
4 .....
5 .....
6 .....
7 h....

Turn = 8.
  01234
0 h..t.
1 .....
2 ...t.
3 .....
4 .....
5 .....
6 ...tt
7 .....
8 .....
9 tt...
0 ...t.
1 .tt..
2 .....
3 .....
4 .....
5 .....
6 .....
7 h....

Turn = 9.
  01234
0 h..t.
1 .....
2 ...t.
3 .....
4 .....
5 .....
6 ...tt
7 .....
8 .....
9 tt...
0 ...t.
1 .tt..
2 .....
3 .....
4 .....
5 .....
6 .....
7 h....

Turn = 10.
  01234
0 h..t.
1 .....
2 ...t.
3 .....
4 .....
5 .....
6 ...tt
7 .....
8 .....
9 tt...
0 ...t.
1 .tt..
2 .....
3 .....
4 .....
5 .....
6 .....
7 h....

*** Darwin 20x8 ***
Turn = 0.
  01234567
0 .......f
1 ....fr..
2 r.......
3 ..r.....
4 ....h.f.
5 .r......
6 ........
7 ........
8 ...h..r.
9 .....ff.
0 ........
1 r.......
2 ........
3 ........
4 ..f..r..
5 ..h.....
6 f.....f.
7 ....h...
8 ..t.....
9 ........

Turn = 1.
  01234567
0 .....r.f
1 ....f...
2 ........
3 r..r....
4 ...h..f.
5 r.......
6 ........
7 ........
8 ..h..r..
9 .....ff.
0 ........
1 .r......
2 ........
3 .....r..
4 ..f.....
5 ........
6 f.h.h.f.
7 ........
8 ..t.....
9 ........

Turn = 2.
  01234567
0 .....r.f
1 ....f...
2 ........
3 ....r...
4 r.h...f.
5 r.......
6 ........
7 ........
8 .h..r...
9 .....ff.
0 ........
1 ..r.....
2 .....r..
3 ........
4 ..f.....
5 ....h...
6 f.....f.
7 ..h.....
8 ..t.....
9 ........

Turn = 3.
  01234567
0 ......rf
1 ....f...
2 ........
3 .....r..
4 rh....f.
5 ........
6 r.......
7 ........
8 h..r....
9 .....ff.
0 ........
1 ...r.r..
2 ........
3 ........
4 ..f.h...
5 ........
6 f.....f.
7 ..h.....
8 ..t.....
9 ........

Turn = 4.
  01234567
0 ......rr
1 ....f...
2 ........
3 ......r.
4 rh....f.
5 ........
6 ........
7 r.......
8 h.r.....
9 .....ff.
0 .....r..
1 ....r...
2 ........
3 ....h...
4 ..f.....
5 ........
6 f.....f.
7 ..h.....
8 ..t.....
9 ........

Turn = 5.
  01234567
0 ......r.
1 ....f..r
2 ........
3 r......r
4 h.....f.
5 ........
6 ........
7 r.......
8 rr......
9 .....rf.
0 .....r..
1 .....r..
2 ....h...
3 ........
4 ..f.....
5 ........
6 f.....f.
7 ..t.....
8 ..t.....
9 ........

Turn = 6.
  01234567
0 ........
1 ....f.r.
2 r......r
3 .......r
4 h.....f.
5 ........
6 ........
7 r.......
8 r.......
9 r...rrf.
0 ........
1 ....h.r.
2 ........
3 ........
4 ..f.....
5 ........
6 f.....f.
7 ..t.....
8 ..t.....
9 ........

Turn = 7.
  01234567
0 ........
1 r...f...
2 ......rr
3 .......r
4 h.....f.
5 ........
6 ........
7 r.......
8 r....r..
9 ...r..f.
0 r...h...
1 .......r
2 ........
3 ........
4 ..f.....
5 ........
6 f.....f.
7 ..t.....
8 ..t.....
9 ........

Turn = 8.
  01234567
0 r.......
1 ....f...
2 ......r.
3 ......rr
4 h.....f.
5 ........
6 r.......
7 .....r..
8 ........
9 r.r.h.f.
0 ........
1 r......r
2 ........
3 ........
4 ..f.....
5 ........
6 f.....f.
7 ..t.....
8 ..t.....
9 ........

Turn = 9.
  01234567
0 r.......
1 ....f...
2 .....r.r
3 ......r.
4 h......r
5 r.......
6 .....r..
7 ........
8 ....h...
9 .r....f.
0 r.......
1 ........
2 r......r
3 ........
4 ..f.....
5 ........
6 f.....f.
7 ..t.....
8 ..t.....
9 ........

Turn = 10.
  01234567
0 r.......
1 ....f..r
2 ....r...
3 ........
4 r.....rr
5 r....r..
6 ........
7 ....h...
8 ........
9 r.....f.
0 ........
1 r.......
2 ........
3 r......r
4 ..f.....
5 ........
6 f.....f.
7 ..t.....
8 ..t.....
9 ........

*** Darwin 3x8 ***
Turn = 0.
  01234567
0 h...h.t.
1 ft....tt
2 t..rhf.f

Turn = 1.
  01234567
0 h.....t.
1 tt..h.tt
2 t.rh.f.f

Turn = 2.
  01234567
0 h.....t.
1 tt....tt
2 trh.hf.f

Turn = 3.
  01234567
0 h.....t.
1 tt....tt
2 tth.hf.t

Turn = 4.
  01234567
0 t.....t.
1 tt....tt
2 tth.hf.t

Turn = 5.
  01234567
0 t.....t.
1 tt....tt
2 ttt.hf.t

Turn = 6.
  01234567
0 t.....t.
1 tt....tt
2 ttt.hf.t

Turn = 7.
  01234567
0 t.....t.
1 tt....tt
2 ttt.hf.t

Turn = 8.
  01234567
0 t.....t.
1 tt....tt
2 ttt.hf.t

Turn = 9.
  01234567
0 t.....t.
1 tt....tt
2 ttt.hf.t

Turn = 10.
  01234567
0 t.....t.
1 tt....tt
2 ttt.hf.t

*** Darwin 18x14 ***
Turn = 0.
  01234567890123
0 h.............
1 ..............
2 ............f.
3 ........h...f.
4 ..h..f........
5 .h.r..r.......
6 ......t.......
7 ....t.....t...
8 t...t....r....
9 .........h....
0 ..............
1 h......r......
2 ..............
3 .........t....
4 ............h.
5 ..............
6 ..............
7 .............h

Turn = 1.
  01234567890123
0 h.............
1 ..............
2 ............f.
3 ..h.........f.
4 .h...fr.h.....
5 ..............
6 ...r..t.......
7 ....t.....t...
8 t...t.....r...
9 ........h.....
0 ..............
1 .h............
2 .......r......
3 .........t....
4 .............h
5 ..............
6 ..............
7 .............h

Turn = 2.
  01234567890123
0 h.............
1 ..............
2 ..h.........f.
3 .h....r.....f.
4 .....f........
5 ........h.....
6 ......t.......
7 ...tt.....t...
8 t...t.....t...
9 .......h......
0 ..............
1 ..h...........
2 ..............
3 .......r.t....
4 .............h
5 ..............
6 ..............
7 .............h

Turn = 3.
  01234567890123
0 h.............
1 ..h...........
2 .h....r.....f.
3 ............f.
4 .....f........
5 ..............
6 ......t.h.....
7 ...tt.....t...
8 t...t.....t...
9 ......h.......
0 ..............
1 ...h..........
2 ..............
3 .........t....
4 .......r.....h
5 ..............
6 ..............
7 .............h

Turn = 4.
  01234567890123
0 h.h...........
1 .h....r.......
2 ............f.
3 ............f.
4 .....f........
5 ..............
6 ......t.......
7 ...tt...h.t...
8 t...t.....t...
9 .....h........
0 ..............
1 ....h.........
2 ..............
3 .........t....
4 .............h
5 .......r......
6 ..............
7 .............h

Turn = 5.
  01234567890123
0 hhh...r.......
1 ..............
2 ............f.
3 ............f.
4 .....f........
5 ..............
6 ......t.......
7 ...tt.....t...
8 t...t...h.t...
9 ....h.........
0 ..............
1 .....h........
2 ..............
3 .........t....
4 .............h
5 ..............
6 .......r......
7 .............h

Turn = 6.
  01234567890123
0 hhh...r.......
1 ..............
2 ............f.
3 ............f.
4 .....f........
5 ..............
6 ......t.......
7 ...tt.....t...
8 t...t.....t...
9 ...h....h.....
0 ..............
1 ......h.......
2 ..............
3 .........t....
4 .............h
5 ..............
6 ..............
7 .......r.....h

Turn = 7.
  01234567890123
0 hhh....r......
1 ..............
2 ............f.
3 ............f.
4 .....f........
5 ..............
6 ......t.......
7 ...tt.....t...
8 t...t.....t...
9 ..h...........
0 ........h.....
1 .......h......
2 ..............
3 .........t....
4 .............h
5 ..............
6 ..............
7 .......r.....h

Turn = 8.
  01234567890123
0 hhh.....r.....
1 ..............
2 ............f.
3 ............f.
4 .....f........
5 ..............
6 ......t.......
7 ...tt.....t...
8 t...t.....t...
9 .h............
0 ..............
1 .......hh.....
2 ..............
3 .........t....
4 .............h
5 ..............
6 ..............
7 ........r....h

Turn = 9.
  01234567890123
0 hhh......r....
1 ..............
2 ............f.
3 ............f.
4 .....f........
5 ..............
6 ......t.......
7 ...tt.....t...
8 t...t.....t...
9 h.............
0 ..............
1 .......h......
2 ........h.....
3 .........t....
4 .............h
5 ..............
6 ..............
7 .........r...h

Turn = 10.
  01234567890123
0 hhh.......r...
1 ..............
2 ............f.
3 ............f.
4 .....f........
5 ..............
6 ......t.......
7 ...tt.....t...
8 t...t.....t...
9 h.............
0 ..............
1 ........h.....
2 ..............
3 ........ht....
4 .............h
5 ..............
6 ..............
7 ..........r..h

*** Darwin 3x16 ***
Turn = 0.
  0123456789012345
0 .f.....f...fr..r
1 r..ft.rftff.f.hf
2 ......r.t.f...t.

Turn = 1.
  0123456789012345
0 .f.....f...rr..r
1 ...ft.rftff.f.tr
2 r.....r.t.f...t.

Turn = 2.
  0123456789012345
0 .f.....f...rr..r
1 ...ftr.ttff.f.tr
2 r....r..t.f...t.

Turn = 3.
  0123456789012345
0 .f.....f....r.r.
1 ...trr.ttffrf.tt
2 r...r...t.f...t.

Turn = 4.
  0123456789012345
0 .f.....t...r.r..
1 ...rrr.ttff.f.tt
2 r..r....t.fr..t.

Turn = 5.
  0123456789012345
0 .f...r.t..r.r...
1 ...rr..tttt.f.tt
2 r.r.....t.fr..t.

Turn = 6.
  0123456789012345
0 .f.rrr.t.r.r....
1 .......tttt.f.tt
2 rr......t.rr..t.

Turn = 7.
  0123456789012345
0 .f.rr.rtt.r.....
1 .......tttr.f.tt
2 rr......t.rr..t.

Turn = 8.
  0123456789012345
0 .frr..rttr......
1 r......tttrrf.tt
2 .r......t.r...t.

Turn = 9.
  0123456789012345
0 rrrr..rrrr.r....
1 .......ttrr.f.tt
2 r.......tr....t.

Turn = 10.
  0123456789012345
0 rrr...rrrr.r....
1 ...r...ttrr.f.tt
2 r.......rr....t.

*** Darwin 14x18 ***
Turn = 0.
  012345678901234567
0 ..................
1 .....h...r.f......
2 .........h..h.....
3 ..........r.......
4 ......f........h..
5 ....r...h.........
6 t....h............
7 .t..............f.
8 ........f........t
9 .....t.......h.f..
0 ..................
1 ..................
2 ..................
3 .r................

Turn = 1.
  012345678901234567
0 ..................
1 ....h.....rf......
2 ........h.r.......
3 ............h.....
4 ....r.f.h.......h.
5 .....h............
6 t.................
7 .t..............f.
8 ........f........t
9 .....t.........f..
0 .............h....
1 ..................
2 .r................
3 ..................

Turn = 2.
  012345678901234567
0 ..................
1 ...h......r.r.....
2 .......h..r.......
3 ....r...h.........
4 .....hf.....h....h
5 ..................
6 t.................
7 .t..............f.
8 ........f........t
9 .....t.........f..
0 ..................
1 .r...........h....
2 ..................
3 ..................

Turn = 3.
  012345678901234567
0 ..................
1 ..h........r.r....
2 ....r.h.h..r......
3 .....h............
4 ......f..........h
5 ............h.....
6 t.................
7 .t..............f.
8 ........f........t
9 .....t.........f..
0 .r................
1 ..................
2 .............h....
3 ..................

Turn = 4.
  012345678901234567
0 ..................
1 .h..r...h...r.r...
2 .....h......r.....
3 .....h............
4 ......f..........h
5 ..................
6 t...........h.....
7 .t..............f.
8 ........f........t
9 .r...t.........f..
0 ..................
1 ..................
2 ..................
3 .............h....

Turn = 5.
  012345678901234567
0 ....r...h.........
1 h............r.r..
2 ....hh.......r....
3 ..................
4 ......f..........h
5 ..................
6 t.................
7 .t..........h...f.
8 .r......f........t
9 .....t.........f..
0 ..................
1 ..................
2 ..................
3 .............h....

Turn = 6.
  012345678901234567
0 ....r...h.........
1 h....h........r.r.
2 ...h..........r...
3 ..................
4 ......f..........h
5 ..................
6 t.................
7 .r..............f.
8 .r......f...h....t
9 .....t.........f..
0 ..................
1 ..................
2 ..................
3 .............h....

Turn = 7.
  012345678901234567
0 ...r.h..h.........
1 h..............r.r
2 ..h............r..
3 ..................
4 ......f..........h
5 ..................
6 tr................
7 .r..............f.
8 ........f........t
9 .....t......h..f..
0 ..................
1 ..................
2 ..................
3 .............h....

Turn = 8.
  012345678901234567
0 ..r..h..h.........
1 h...............rr
2 .h..............r.
3 ..................
4 ......f..........h
5 ..................
6 tr................
7 .r..............f.
8 ........f........t
9 .....t.........f..
0 ............h.....
1 ..................
2 ..................
3 .............h....

Turn = 9.
  012345678901234567
0 .r...h..h.........
1 h...............r.
2 h...............rr
3 ..................
4 ......f..........h
5 ..................
6 tr................
7 .r..............f.
8 ........f........t
9 .....t.........f..
0 ..................
1 ............h.....
2 ..................
3 .............h....

Turn = 10.
  012345678901234567
0 r....h..h.........
1 h...............r.
2 h.................
3 ................rr
4 ......f..........h
5 ..................
6 tt................
7 .t..............f.
8 ........f........t
9 .....t.........f..
0 ..................
1 ..................
2 ............h.....
3 .............h....

*** Darwin 13x15 ***
Turn = 0.
  012345678901234
0 .......h.......
1 .......h...h...
2 ....r..........
3 ...............
4 ...........t...
5 ...h.......t...
6 ...............
7 .........h..t..
8 ...r...........
9 f..r..rt......r
0 ...............
1 ....r..r.....r.
2 ...t...........

Turn = 1.
  012345678901234
0 ........h..h...
1 ...............
2 ...r...h.......
3 ...............
4 ...h.......t...
5 ...........t...
6 ...............
7 ........h...t..
8 ....r.r.......r
9 f...r..t.......
0 ...............
1 ...r........r..
2 ...t...r.......

Turn = 2.
  012345678901234
0 .........h.h...
1 ...............
2 ..r............
3 ...h...h.......
4 ...........t...
5 ...........t...
6 ...............
7 ......rh....t.r
8 .....r.........
9 f....r.t.......
0 ...............
1 ..r........r...
2 ...t...r.......

Turn = 3.
  012345678901234
0 ..........hh...
1 ...............
2 .r.h...........
3 ...............
4 .......h...t...
5 ...........t...
6 ......r.......r
7 ......h.....t..
8 ......r........
9 f.....rt.......
0 ...............
1 .r........r....
2 ...t..r........

Turn = 4.
  012345678901234
0 ..........hh...
1 ...h...........
2 r..............
3 ...............
4 ...........t...
5 ......rh...t..r
6 ...............
7 .....h......t..
8 .......r.......
9 f.....r.r......
0 ...............
1 r........r.....
2 ...t.r.........

Turn = 5.
  012345678901234
0 ...h......hh...
1 ...............
2 r..............
3 ...............
4 ......r....t..r
5 ...........t...
6 .......h.......
7 ....h.......t..
8 ........r......
9 f......r.r.....
0 ...............
1 r.......r......
2 ...tr..........

Turn = 6.
  012345678901234
0 ...h......hh...
1 ...............
2 ...............
3 r.....r.......r
4 ...........t...
5 ...........t...
6 ...............
7 ...h...h....t..
8 .........r.....
9 f.......r.r....
0 r..............
1 .......r.......
2 ...rr..........

Turn = 7.
  012345678901234
0 ...h......hh...
1 ...............
2 ......r.......r
3 ...............
4 r..........t...
5 ...........t...
6 ...............
7 ..h.........t..
8 .......h..r....
9 r........r.r...
0 r..............
1 ......r........
2 ...rr..........

Turn = 8.
  012345678901234
0 ...h......hh...
1 ......r.......r
2 ...............
3 ...............
4 ...........t...
5 r..........t...
6 ...............
7 .h..........t..
8 ...........r...
9 r......h..r.r..
0 r..............
1 ....rr.........
2 ...r...........

Turn = 9.
  012345678901234
0 ...h..r...hh..r
1 ...............
2 ...............
3 ...............
4 ...........t...
5 ...........t...
6 r..............
7 h...........t..
8 ............r..
9 r..........r.r.
0 r...r..h.......
1 ....r..........
2 ....r..........

Turn = 10.
  012345678901234
0 ...h..r...hh..r
1 ...............
2 ...............
3 ...............
4 ...........t...
5 ...........t...
6 r..............
7 r...........t..
8 r...........t..
9 r...r.......r.r
0 ...............
1 ...r...h.......
2 .....r.........

*** Darwin 15x10 ***
Turn = 0.
  0123456789
0 .th.......
1 ..........
2 .......f..
3 ..........
4 ....r.....
5 .r..f....f
6 t.......t.
7 ........f.
8 ..t.......
9 ..r....r..
0 t...r.....
1 .f........
2 h.........
3 ....h.....
4 ........f.

Turn = 1.
  0123456789
0 .th.......
1 ..........
2 .......f..
3 ..........
4 .r...r....
5 ....f....f
6 t.......t.
7 ........f.
8 ..r....r..
9 ..r.......
0 t..r......
1 hf........
2 ....h.....
3 ..........
4 ........f.

Turn = 2.
  0123456789
0 .th.......
1 ..........
2 .......f..
3 .r........
4 ......r...
5 ....f....f
6 t.......t.
7 .......rf.
8 .rr.......
9 ..........
0 t.r.......
1 hf..h.....
2 ..........
3 ..........
4 ........f.

Turn = 3.
  0123456789
0 .tt.......
1 ..........
2 .r.....f..
3 ..........
4 .......r..
5 ....f....f
6 t......rt.
7 ..r.....t.
8 r.........
9 ..........
0 tr..h.....
1 hf........
2 ..........
3 ..........
4 ........f.

Turn = 4.
  0123456789
0 .tt.......
1 .r........
2 .......f..
3 ..........
4 ........r.
5 ....f..r.f
6 t.r.....t.
7 ........t.
8 r.........
9 ....h.....
0 tr........
1 tf........
2 ..........
3 ..........
4 ........f.

Turn = 5.
  0123456789
0 .rt.......
1 .r........
2 .......f..
3 ..........
4 .......r.r
5 ..r.f....f
6 t.......t.
7 r.......t.
8 ....h.....
9 ..........
0 tr........
1 tf........
2 ..........
3 ..........
4 ........f.

Turn = 6.
  0123456789
0 rrt.......
1 ..........
2 .......f..
3 .......r..
4 ..r......r
5 ....f....f
6 r.......t.
7 r...h...t.
8 ..........
9 ..........
0 tt........
1 tf........
2 ..........
3 ..........
4 ........f.

Turn = 7.
  0123456789
0 rrt.......
1 ..........
2 .......r..
3 ..r....r.r
4 ..........
5 r...f....f
6 r...h...t.
7 ........t.
8 ..........
9 ..........
0 tt........
1 tt........
2 ..........
3 ..........
4 ........f.

Turn = 8.
  0123456789
0 rrr.......
1 ..........
2 ..r....rrr
3 ..........
4 r.........
5 r...f....f
6 ....h...t.
7 ........t.
8 ..........
9 ..........
0 tt........
1 tt........
2 ..........
3 ..........
4 ........f.

Turn = 9.
  0123456789
0 rrr.......
1 ..r....r.r
2 ........r.
3 r.........
4 r.........
5 ....f....f
6 ....h...t.
7 ........t.
8 ..........
9 ..........
0 tt........
1 tt........
2 ..........
3 ..........
4 ........f.

Turn = 10.
  0123456789
0 rrrr...r.r
1 ..........
2 r.........
3 r.......r.
4 ..........
5 ....f....f
6 ....h...t.
7 ........t.
8 ..........
9 ..........
0 tt........
1 tt........
2 ..........
3 ..........
4 ........f.

*** Darwin 13x5 ***
Turn = 0.
  01234
0 ...f.
1 h....
2 .....
3 t.h..
4 .....
5 r....
6 r.h..
7 ..fr.
8 .....
9 t..h.
0 r...f
1 r..ft
2 .....

Turn = 1.
  01234
0 ...f.
1 .....
2 h....
3 t....
4 ..h..
5 .rh..
6 .r...
7 ..rr.
8 .....
9 t....
0 r..hf
1 r..tt
2 .....

Turn = 2.
  01234
0 ...f.
1 .....
2 h....
3 t....
4 ..r..
5 .rr..
6 ..r..
7 .rr..
8 .....
9 r....
0 r..hf
1 ...tt
2 r....

Turn = 3.
  01234
0 ...f.
1 .....
2 h....
3 t....
4 ..r..
5 .rr..
6 ...r.
7 rr...
8 .....
9 r....
0 r..tf
1 ...tt
2 r....

Turn = 4.
  01234
0 ...f.
1 .....
2 t....
3 t....
4 .r...
5 ...r.
6 .r..r
7 rr...
8 .....
9 r....
0 r..tf
1 ...tt
2 .r...

Turn = 5.
  01234
0 ...f.
1 .....
2 t....
3 t....
4 r....
5 ....r
6 rr..r
7 .r...
8 .....
9 r....
0 r..tt
1 ...tt
2 ..r..

Turn = 6.
  01234
0 ...f.
1 .....
2 t....
3 t....
4 r....
5 r...r
6 ..r..
7 ..r.r
8 .....
9 .r...
0 r..tt
1 ...tt
2 ...r.

Turn = 7.
  01234
0 ...f.
1 .....
2 t....
3 t....
4 t...r
5 t....
6 ...r.
7 ...r.
8 ....r
9 ..r..
0 ...tt
1 r..tt
2 ....r

Turn = 8.
  01234
0 ...f.
1 .....
2 t....
3 t...r
4 t....
5 t....
6 ....r
7 ....r
8 .....
9 ...rr
0 ...tt
1 ...tt
2 r...r

Turn = 9.
  01234
0 ...f.
1 .....
2 t...r
3 t....
4 t....
5 t....
6 ....r
7 ....r
8 .....
9 ...rr
0 ...tt
1 ...tt
2 r...r

Turn = 10.
  01234
0 ...f.
1 ....r
2 t....
3 t....
4 t....
5 t...r
6 .....
7 .....
8 ....r
9 ...rr
0 ...rt
1 ...tt
2 .r..r

*** Darwin 5x4 ***
Turn = 0.
  0123
0 ..tf
1 h...
2 ...r
3 frr.
4 rt.h

Turn = 1.
  0123
0 ..tf
1 .h.r
2 .r..
3 fr.h
4 rt..

Turn = 2.
  0123
0 ..tr
1 .rhr
2 ...h
3 rt..
4 rt..

Turn = 3.
  0123
0 .rtt
1 ..ht
2 ...h
3 tt..
4 rt..

Turn = 4.
  0123
0 .rtt
1 ..tt
2 ...h
3 rt..
4 tt..

Turn = 5.
  0123
0 .rrt
1 ..tt
2 ...h
3 tt..
4 tt..

Turn = 6.
  0123
0 .rtr
1 ..tt
2 ...t
3 tt..
4 tt..

Turn = 7.
  0123
0 .rtt
1 ..tt
2 ...t
3 tt..
4 tt..

Turn = 8.
  0123
0 .rrr
1 ..tt
2 ...t
3 tt..
4 tt..

Turn = 9.
  0123
0 .rrt
1 ..tt
2 ...t
3 tt..
4 tt..

Turn = 10.
  0123
0 ..rt
1 .rtt
2 ...t
3 tt..
4 tt..

*** Darwin 7x6 ***
Turn = 0.
  012345
0 frrt..
1 ..rf..
2 hr....
3 ..tr..
4 ..ff..
5 .h.f..
6 r.....

Turn = 1.
  012345
0 rrrt..
1 ...t..
2 ..r...
3 htrr..
4 ..ff..
5 ...f..
6 rr....

Turn = 2.
  012345
0 rrrr..
1 ....r.
2 ..r...
3 .rrr..
4 h.ff..
5 ...f..
6 rr....

Turn = 3.
  012345
0 rrr...
1 ...r.r
2 .r.r..
3 .rr...
4 ..ff..
5 h..f..
6 r.r...

Turn = 4.
  012345
0 rr....
1 ..rr.r
2 rrrr..
3 ......
4 ..ff..
5 h..f..
6 .r.r..

Turn = 5.
  012345
0 r....r
1 .rr.r.
2 rrrr..
3 ......
4 ..ff..
5 ...f..
6 h.r.r.

Turn = 6.
  012345
0 r....r
1 rr.r.r
2 r.rr..
3 ......
4 ..ff..
5 ...f..
6 h..r.r

Turn = 7.
  012345
0 r...r.
1 r.r.rr
2 r...r.
3 ..r...
4 ..ff..
5 ...f..
6 h...rr

Turn = 8.
  012345
0 r..r.r
1 .r.rr.
2 .....r
3 r.r...
4 ..rf..
5 ...f.r
6 h...r.

Turn = 9.
  012345
0 r.r..r
1 ..rr..
2 ....rr
3 ..r...
4 r.rr.r
5 ....r.
6 h..r..

Turn = 10.
  012345
0 .rr.r.
1 ..r...
2 ...r..
3 .r..rr
4 ..r.rr
5 r..r..
6 h..r..

*** Darwin 10x13 ***
Turn = 0.
  0123456789012
0 ....h........
1 .............
2 .............
3 r.f........f.
4 ........f....
5 tr......t.f..
6 .............
7 ..t.........r
8 .r...........
9 ............t

Turn = 1.
  0123456789012
0 ...h.........
1 .............
2 .............
3 r.f........f.
4 ........f....
5 tt......t.f..
6 ............r
7 ..t..........
8 .............
9 .r..........t

Turn = 2.
  0123456789012
0 ..h..........
1 .............
2 r............
3 ..f........f.
4 ........f....
5 tt......t.f.r
6 .............
7 ..t..........
8 .............
9 .r..........t

Turn = 3.
  0123456789012
0 .h...........
1 r............
2 .............
3 ..f........f.
4 ........t...r
5 tt......t.f..
6 .............
7 ..t..........
8 .............
9 ..r.........t

Turn = 4.
  0123456789012
0 r............
1 r............
2 .............
3 ..f........fr
4 ........t....
5 tt......t.f..
6 .............
7 ..t..........
8 .............
9 ...r........t

Turn = 5.
  0123456789012
0 r............
1 r............
2 ............r
3 ..f........f.
4 ........t....
5 tt......t.f..
6 .............
7 ..t..........
8 .............
9 ....r.......t

Turn = 6.
  0123456789012
0 r............
1 .r..........r
2 .............
3 ..f........f.
4 ........t....
5 tt......t.f..
6 .............
7 ..t..........
8 .............
9 .....r......t

Turn = 7.
  0123456789012
0 .r..........r
1 ..r..........
2 .............
3 ..f........f.
4 ........t....
5 tt......t.f..
6 .............
7 ..t..........
8 .............
9 ......r.....t

Turn = 8.
  0123456789012
0 ..r.........r
1 ...r.........
2 .............
3 ..f........f.
4 ........t....
5 tt......t.f..
6 .............
7 ..t..........
8 .............
9 .......r....t

Turn = 9.
  0123456789012
0 ...r........r
1 ....r........
2 .............
3 ..f........f.
4 ........t....
5 tt......t.f..
6 .............
7 ..t..........
8 .............
9 ........r...t

Turn = 10.
  0123456789012
0 ....r.......r
1 .....r.......
2 .............
3 ..f........f.
4 ........t....
5 tt......t.f..
6 .............
7 ..t..........
8 .............
9 .........r..t
